[000000.043]_[Infor]_[PPS]_[Enter_Exit]_Enter Vi: PrimaryPowerSupply.lvclass:PPS_Open.vi
[000016.147]_[Infor]_[PPS]_[Enter_Exit]_Exit Vi: PrimaryPowerSupply.lvclass:PPS_Open.vi
[000027.516]_[Infor]_[PPS]_[Enter_Exit]_Enter Vi: PrimaryPowerSupply.lvclass:PPS_SetCurrent.vi
[000098.592]_[Infor]_[PPS]_[Enter_Exit]_Enter Vi: PrimaryPowerSupply.lvclass:PPS_CheckReady.vi
[000098.597]_[Infor]_[PPS]_[Enter_Exit]_Exit Vi: PrimaryPowerSupply.lvclass:PPS_CheckReady.vi
[000139.926]_[Infor]_[PPS]_[Enter_Exit]_Enter Vi: PrimaryPowerSupply.lvclass:PPS_CheckReady.vi
[000139.929]_[Infor]_[PPS]_[Enter_Exit]_Exit Vi: PrimaryPowerSupply.lvclass:PPS_CheckReady.vi
[000144.059]_[Infor]_[PPS]_[Enter_Exit]_Enter Vi: PrimaryPowerSupply.lvclass:PPS_CheckReady.vi
[000144.066]_[Infor]_[PPS]_[Enter_Exit]_Exit Vi: PrimaryPowerSupply.lvclass:PPS_CheckReady.vi
[000145.670]_[Infor]_[PPS]_[Enter_Exit]_Exit Vi: PrimaryPowerSupply.lvclass:PPS_SetCurrent.vi
[000330.395]_[Infor]_[PPS]_[Enter_Exit]_Enter Vi: PrimaryPowerSupply.lvclass:PPS_SetOutputState.vi
[000357.185]_[Infor]_[PPS]_[Enter_Exit]_Enter Vi: PrimaryPowerSupply.lvclass:PPS_CheckReady.vi
[000357.188]_[Infor]_[PPS]_[Enter_Exit]_Exit Vi: PrimaryPowerSupply.lvclass:PPS_CheckReady.vi
[000432.373]_[Infor]_[PPS]_[Enter_Exit]_Enter Vi: PrimaryPowerSupply.lvclass:PPS_CheckReady.vi
[000496.835]_[Infor]_[PPS]_[Enter_Exit]_Exit Vi: PrimaryPowerSupply.lvclass:PPS_CheckReady.vi
[000557.763]_[Infor]_[PPS]_[Enter_Exit]_Enter Vi: PrimaryPowerSupply.lvclass:PPS_CheckReady.vi
[000557.769]_[Infor]_[PPS]_[Enter_Exit]_Exit Vi: PrimaryPowerSupply.lvclass:PPS_CheckReady.vi
[000559.341]_[Infor]_[PPS]_[Enter_Exit]_Enter Vi: PrimaryPowerSupply.lvclass:PPS_CheckReady.vi
[000559.345]_[Infor]_[PPS]_[Enter_Exit]_Exit Vi: PrimaryPowerSupply.lvclass:PPS_CheckReady.vi
[000560.314]_[Infor]_[PPS]_[Enter_Exit]_Enter Vi: PrimaryPowerSupply.lvclass:PPS_CheckReady.vi
[000560.318]_[Infor]_[PPS]_[Enter_Exit]_Exit Vi: PrimaryPowerSupply.lvclass:PPS_CheckReady.vi
[000561.296]_[Infor]_[PPS]_[Enter_Exit]_Enter Vi: PrimaryPowerSupply.lvclass:PPS_CheckReady.vi
[000561.303]_[Infor]_[PPS]_[Enter_Exit]_Exit Vi: PrimaryPowerSupply.lvclass:PPS_CheckReady.vi
[000563.340]_[Infor]_[PPS]_[Enter_Exit]_Enter Vi: PrimaryPowerSupply.lvclass:PPS_CheckReady.vi
[000563.345]_[Infor]_[PPS]_[Enter_Exit]_Exit Vi: PrimaryPowerSupply.lvclass:PPS_CheckReady.vi
[000564.923]_[Infor]_[PPS]_[Enter_Exit]_Enter Vi: PrimaryPowerSupply.lvclass:PPS_CheckReady.vi
[000564.929]_[Infor]_[PPS]_[Enter_Exit]_Exit Vi: PrimaryPowerSupply.lvclass:PPS_CheckReady.vi
[000566.483]_[Infor]_[PPS]_[Enter_Exit]_Enter Vi: PrimaryPowerSupply.lvclass:PPS_CheckReady.vi
[000566.490]_[Infor]_[PPS]_[Enter_Exit]_Exit Vi: PrimaryPowerSupply.lvclass:PPS_CheckReady.vi
[000568.020]_[Infor]_[PPS]_[Enter_Exit]_Enter Vi: PrimaryPowerSupply.lvclass:PPS_CheckReady.vi
[000568.025]_[Infor]_[PPS]_[Enter_Exit]_Exit Vi: PrimaryPowerSupply.lvclass:PPS_CheckReady.vi
[000569.603]_[Infor]_[PPS]_[Enter_Exit]_Enter Vi: PrimaryPowerSupply.lvclass:PPS_CheckReady.vi
[000569.608]_[Infor]_[PPS]_[Enter_Exit]_Exit Vi: PrimaryPowerSupply.lvclass:PPS_CheckReady.vi
[000570.932]_[Infor]_[PPS]_[Enter_Exit]_Enter Vi: PrimaryPowerSupply.lvclass:PPS_CheckReady.vi
[000570.939]_[Infor]_[PPS]_[Enter_Exit]_Exit Vi: PrimaryPowerSupply.lvclass:PPS_CheckReady.vi
[000572.254]_[Infor]_[PPS]_[Enter_Exit]_Enter Vi: PrimaryPowerSupply.lvclass:PPS_CheckReady.vi
[000572.258]_[Infor]_[PPS]_[Enter_Exit]_Exit Vi: PrimaryPowerSupply.lvclass:PPS_CheckReady.vi
[000573.517]_[Infor]_[PPS]_[Enter_Exit]_Enter Vi: PrimaryPowerSupply.lvclass:PPS_CheckReady.vi
[000573.520]_[Infor]_[PPS]_[Enter_Exit]_Exit Vi: PrimaryPowerSupply.lvclass:PPS_CheckReady.vi
[000574.862]_[Infor]_[PPS]_[Enter_Exit]_Enter Vi: PrimaryPowerSupply.lvclass:PPS_CheckReady.vi
[000574.866]_[Infor]_[PPS]_[Enter_Exit]_Exit Vi: PrimaryPowerSupply.lvclass:PPS_CheckReady.vi
