[000000.002]_[Infor]_[PPS]_[Enter_Exit]_Enter Vi: PrimaryPowerSupply.lvclass:PPS_Open.vi
[000005.490]_[Infor]_[PPS]_[Enter_Exit]_Enter Vi: PrimaryPowerSupply.lvclass:PPS_SetCurrent.vi
[000054.953]_[Infor]_[PPS]_[Enter_Exit]_Enter Vi: PrimaryPowerSupply.lvclass:PPS_CheckReady.vi
