[000002.615]_[Infor]_[PPS]_[Enter_Exit]_Enter Vi: PrimaryPowerSupply.lvclass:PPS_Open.vi
[000002.630]_[Infor]_[PPS]_[Enter_Exit]_Exit Vi: PrimaryPowerSupply.lvclass:PPS_Open.vi
[000003.550]_[Infor]_[PPS]_[Enter_Exit]_Enter Vi: PrimaryPowerSupply.lvclass:PPS_SetCurrent.vi
[000003.551]_[Infor]_[PPS]_[Enter_Exit]_Enter Vi: PrimaryPowerSupply.lvclass:PPS_CheckReady.vi
[000003.556]_[Infor]_[PPS]_[Enter_Exit]_Exit Vi: PrimaryPowerSupply.lvclass:PPS_CheckReady.vi
[000003.563]_[Infor]_[PPS]_[Enter_Exit]_Enter Vi: PrimaryPowerSupply.lvclass:PPS_CheckReady.vi
[000003.567]_[Infor]_[PPS]_[Enter_Exit]_Exit Vi: PrimaryPowerSupply.lvclass:PPS_CheckReady.vi
[000003.576]_[Infor]_[PPS]_[Enter_Exit]_Enter Vi: PrimaryPowerSupply.lvclass:PPS_CheckReady.vi
[000003.581]_[Infor]_[PPS]_[Enter_Exit]_Exit Vi: PrimaryPowerSupply.lvclass:PPS_CheckReady.vi
[000003.584]_[Infor]_[PPS]_[Enter_Exit]_Exit Vi: PrimaryPowerSupply.lvclass:PPS_SetCurrent.vi
[000004.469]_[Infor]_[PPS]_[Enter_Exit]_Enter Vi: PrimaryPowerSupply.lvclass:PPS_SetOutputState.vi
