[000001.806]_[Infor]_[PPS]_[Enter_Exit]_Enter Vi: PrimaryPowerSupply.lvclass:PPS_Open.vi
[000005.629]_[Infor]_[PPS]_[Enter_Exit]_Exit Vi: PrimaryPowerSupply.lvclass:PPS_Open.vi
[000017.535]_[Infor]_[PPS]_[Enter_Exit]_Enter Vi: PrimaryPowerSupply.lvclass:PPS_SetCurrent.vi
