[000000.034]_[Infor]_[PPS]_[Enter_Exit]_Enter Vi: PrimaryPowerSupply.lvclass:PPS_Open.vi
[000000.103]_[Infor]_[PPS]_[Enter_Exit]_Exit Vi: PrimaryPowerSupply.lvclass:PPS_Open.vi
[000000.107]_[Infor]_[PPS]_[Enter_Exit]_Enter Vi: PrimaryPowerSupply.lvclass:PPS_SetCurrent.vi
[000006.753]_[Infor]_[PPS]_[Enter_Exit]_Enter Vi: PrimaryPowerSupply.lvclass:PPS_CheckReady.vi
[000017.664]_[Infor]_[PPS]_[Enter_Exit]_Exit Vi: PrimaryPowerSupply.lvclass:PPS_CheckReady.vi
[000020.948]_[Infor]_[PPS]_[Enter_Exit]_Enter Vi: PrimaryPowerSupply.lvclass:PPS_CheckReady.vi
[000020.956]_[Infor]_[PPS]_[Enter_Exit]_Exit Vi: PrimaryPowerSupply.lvclass:PPS_CheckReady.vi
[000020.962]_[Infor]_[PPS]_[Enter_Exit]_Enter Vi: PrimaryPowerSupply.lvclass:PPS_CheckReady.vi
[000020.968]_[Infor]_[PPS]_[Enter_Exit]_Exit Vi: PrimaryPowerSupply.lvclass:PPS_CheckReady.vi
[000020.981]_[Infor]_[PPS]_[Enter_Exit]_Exit Vi: PrimaryPowerSupply.lvclass:PPS_SetCurrent.vi
[000023.983]_[Infor]_[PPS]_[Enter_Exit]_Enter Vi: PrimaryPowerSupply.lvclass:PPS_SetOutputState.vi
