[000000.104]_[Infor]_[PPS]_[Enter_Exit]_Enter Vi: PrimaryPowerSupply.lvclass:PPS_Open.vi
[000000.122]_[Infor]_[PPS]_[Enter_Exit]_Exit Vi: PrimaryPowerSupply.lvclass:PPS_Open.vi
[000016.785]_[Infor]_[PPS]_[Enter_Exit]_Enter Vi: PrimaryPowerSupply.lvclass:PPS_SetOutputState.vi
[000028.405]_[Infor]_[PPS]_[Enter_Exit]_Enter Vi: PrimaryPowerSupply.lvclass:PPS_CheckReady.vi
[000028.408]_[Infor]_[PPS]_[Enter_Exit]_Exit Vi: PrimaryPowerSupply.lvclass:PPS_CheckReady.vi
